{
    "product_id": "api_b46dbb72-9124-4080-9951-a7d3a618240b",
    "tool_description": "Get a list of remote jobs from different resources: weworkremotely, remoteok, GitHub, StackOverflow, Twitch, Mailchimp, Figma...",
    "home_url": "https://rapidapi.com/kazamos/api/remote-jobs-api/",
    "name": "Remote Jobs API",
    "title": "Remote Jobs API",
    "pricing": "FREEMIUM",
    "tool_name": "Remote Jobs API",
    "score": {
        "avgServiceLevel": 100,
        "avgLatency": 528,
        "avgSuccessRate": 100,
        "popularityScore": 9.4,
        "__typename": "Score"
    },
    "host": "remote-jobs-api.p.rapidapi.com",
    "api_list": [
        {
            "name": "Get the latest remote jobs",
            "url": "https://remote-jobs-api.p.rapidapi.com/jobs",
            "description": "Get a list of the latest 20 remote jobs",
            "method": "GET",
            "required_parameters": [],
            "optional_parameters": [
                {
                    "name": "company",
                    "type": "STRING",
                    "description": "",
                    "default": "shopify"
                },
                {
                    "name": "category",
                    "type": "ENUM",
                    "description": "",
                    "default": ""
                }
            ],
            "code": "import requests\n\nurl = \"https://remote-jobs-api.p.rapidapi.com/jobs\"\nquerystring = {\"company\": \"shopify\", \"category\": \"\"}\n\nheaders = {\n            \"X-RapidAPI-Key\": \"SIGN-UP-FOR-KEY\",\n            \"X-RapidAPI-Host\": \"remote-jobs-api.p.rapidapi.com\"\n        }\n\nresponse = requests.get(url, headers=headers, params=querystring)\nprint(response.json())\n",
            "convert_code": "import requests\n\nurl = \"https://remote-jobs-api.p.rapidapi.com/jobs\"\nquerystring = {\"company\": \"shopify\", \"category\": \"\"}\n\nheaders = {\n            \"X-RapidAPI-Key\": \"SIGN-UP-FOR-KEY\",\n            \"X-RapidAPI-Host\": \"remote-jobs-api.p.rapidapi.com\"\n        }\n\nresponse = requests.get(url, headers=headers, params=querystring)\nprint(response.json())\n",
            "test_endpoint": {
                "meta": {
                    "page": 1,
                    "total": 3,
                    "has_more": false
                },
                "items": [
                    {
                        "_id": "6054f4d294e51d001791bda0",
                        "company_logo": "https://remoteOK.io/assets/jobs/dc2eb8ad5fba524dc60f41edb888e1381615421309.png",
                        "id": "remoteok-102861",
                        "title": "Staff Data Scientist",
                        "location": "remote",
                        "company_name": "Shopify",
                        "date": "2021-03-11T00:08:29.000Z"
                    },
                    {
                        "_id": "6054f4d294e51d001791bda2",
                        "company_logo": "https://remoteOK.io/assets/jobs/e93167f5a9894ae783af8a177c1d2f9b1615407641.png",
                        "id": "remoteok-102857",
                        "title": "Senior Software Engineer",
                        "location": "remote",
                        "company_name": "Shopify",
                        "date": "2021-03-10T20:20:41.000Z"
                    },
                    {
                        "_id": "6054f4d394e51d001791be29",
                        "company_logo": "https://remoteOK.io/assets/jobs/d96d158a254d762401205874b55698d61614363186.png",
                        "id": "remoteok-102469",
                        "title": "Staff Software Developer",
                        "location": "remote",
                        "company_name": "Shopify",
                        "date": "2021-02-26T18:13:06.000Z"
                    }
                ]
            },
            "statuscode": 200,
            "schema": {}
        },
        {
            "name": "Get a specific remote job by id",
            "url": "https://remote-jobs-api.p.rapidapi.com/job/{id}",
            "description": "Using the id of the job returned from /jobs route, get more details about a specific job",
            "method": "GET",
            "required_parameters": [
                {
                    "name": "id",
                    "type": "string",
                    "description": "",
                    "default": ""
                }
            ],
            "optional_parameters": [],
            "code": "import requests\n\nurl = \"https://remote-jobs-api.p.rapidapi.com/job/{id}\"\nquerystring = {\"id\": \"\"}\n\nheaders = {\n            \"X-RapidAPI-Key\": \"SIGN-UP-FOR-KEY\",\n            \"X-RapidAPI-Host\": \"remote-jobs-api.p.rapidapi.com\"\n        }\n\nresponse = requests.get(url, headers=headers, params=querystring)\nprint(response.json())\n",
            "convert_code": "import requests\n\nurl = \"https://remote-jobs-api.p.rapidapi.com/job/{id}\"\nquerystring = {\"id\": \"\"}\n\nheaders = {\n            \"X-RapidAPI-Key\": \"SIGN-UP-FOR-KEY\",\n            \"X-RapidAPI-Host\": \"remote-jobs-api.p.rapidapi.com\"\n        }\n\nresponse = requests.get(url, headers=headers, params=querystring)\nprint(response.json())\n",
            "test_endpoint": null
        },
        {
            "name": "Pagination for remote jobs",
            "url": "https://remote-jobs-api.p.rapidapi.com/jobs/page/2",
            "description": "Paginate over the remote jobs by using the pageId parameter",
            "method": "GET",
            "required_parameters": [
                {
                    "name": "pageId",
                    "type": "NUMBER",
                    "description": "",
                    "default": "2"
                }
            ],
            "optional_parameters": [],
            "code": "import requests\n\nurl = \"https://remote-jobs-api.p.rapidapi.com/jobs/page/2\"\n\nheaders = {\n            \"X-RapidAPI-Key\": \"SIGN-UP-FOR-KEY\",\n            \"X-RapidAPI-Host\": \"remote-jobs-api.p.rapidapi.com\"\n        }\n\nresponse = requests.get(url, headers=headers)\nprint(response.json())\n",
            "convert_code": "import requests\n\nurl = \"https://remote-jobs-api.p.rapidapi.com/jobs/page/{pageid}\"\n\nheaders = {\n            \"X-RapidAPI-Key\": \"SIGN-UP-FOR-KEY\",\n            \"X-RapidAPI-Host\": \"remote-jobs-api.p.rapidapi.com\"\n        }\n\nresponse = requests.get(url, headers=headers)\nprint(response.json())\n",
            "test_endpoint": {
                "meta": {
                    "page": 2,
                    "total": 846,
                    "has_more": true
                },
                "items": [
                    {
                        "_id": "648c087926ef970014344595",
                        "company_logo": "https://we-work-remotely.imgix.net/logos/0064/7908/logo.gif?ixlib=rails-4.0.0&w=50&h=50&dpr=2&fit=fill&auto=compress",
                        "id": "weworkremotely-bbe-marketing-inc-partnership-manager-7",
                        "title": "Partnership Manager",
                        "location": "anywhere in the world",
                        "company_name": "BBE Marketing Inc",
                        "date": "2023-06-14T13:11:39.000Z"
                    },
                    {
                        "_id": "648c087926ef97001434458f",
                        "company_logo": "https://we-work-remotely.imgix.net/logos/0084/1046/logo.gif?ixlib=rails-4.0.0&w=50&h=50&dpr=2&fit=fill&auto=compress",
                        "id": "weworkremotely-ten7-drupal-developer-tech-lead",
                        "title": "Drupal Developer, Tech Lead",
                        "location": "usa only",
                        "company_name": "TEN7",
                        "date": "2023-06-13T16:32:17.000Z"
                    },
                    {
                        "_id": "648c087926ef970014344549",
                        "company_logo": "https://we-work-remotely.imgix.net/logos/0084/1046/logo.gif?ixlib=rails-4.0.0&w=50&h=50&dpr=2&fit=fill&auto=compress",
                        "id": "weworkremotely-ten7-drupal-developer-tech-lead",
                        "title": "Drupal Developer, Tech Lead",
                        "location": "usa only",
                        "company_name": "TEN7",
                        "date": "2023-06-13T16:32:17.000Z"
                    },
                    {
                        "_id": "648c087926ef97001434460d",
                        "company_logo": "https://we-work-remotely.imgix.net/logos/0094/0375/logo.gif?ixlib=rails-4.0.0&w=50&h=50&dpr=2&fit=fill&auto=compress",
                        "id": "weworkremotely-ocr-labs-full-stack-senior-mobile-engineer",
                        "title": "Full Stack Senior Mobile Engineer",
                        "location": "anywhere in the world",
                        "company_name": "IDVerse / OCR Labs",
                        "date": "2023-06-13T11:19:54.000Z"
                    },
                    {
                        "_id": "648c087926ef97001434454a",
                        "company_logo": "https://we-work-remotely.imgix.net/logos/0094/0375/logo.gif?ixlib=rails-4.0.0&w=50&h=50&dpr=2&fit=fill&auto=compress",
                        "id": "weworkremotely-ocr-labs-full-stack-senior-mobile-engineer",
                        "title": "Full Stack Senior Mobile Engineer",
                        "location": "anywhere in the world",
                        "company_name": "IDVerse / OCR Labs",
                        "date": "2023-06-13T11:19:54.000Z"
                    },
                    {
                        "_id": "648c087926ef9700143445e8",
                        "company_logo": "https://we-work-remotely.imgix.net/logos/0094/0337/logo.gif?ixlib=rails-4.0.0&w=50&h=50&dpr=2&fit=fill&auto=compress",
                        "id": "weworkremotely-spicy-hr-customer-success-manager-100-remote-usa-only",
                        "title": "Customer Success Manager (100% Remote - USA ONLY)",
                        "location": "usa only",
                        "company_name": "SPICY.hr",
                        "date": "2023-06-12T22:30:18.000Z"
                    },
                    {
                        "_id": "648c087926ef970014344572",
                        "company_logo": "https://we-work-remotely.imgix.net/logos/0094/0337/logo.gif?ixlib=rails-4.0.0&w=50&h=50&dpr=2&fit=fill&auto=compress",
                        "id": "weworkremotely-spicy-hr-customer-success-manager-100-remote-usa-only",
                        "title": "Customer Success Manager (100% Remote - USA ONLY)",
                        "location": "usa only",
                        "company_name": "SPICY.hr",
                        "date": "2023-06-12T22:30:18.000Z"
                    },
                    {
                        "_id": "648c087926ef9700143445a5",
                        "company_logo": "https://we-work-remotely.imgix.net/logos/0081/7220/logo.gif?ixlib=rails-4.0.0&w=50&h=50&dpr=2&fit=fill&auto=compress",
                        "id": "weworkremotely-close-senior-staff-software-engineer-backend-python-usa-100-remote",
                        "title": "Senior/Staff Software Engineer - Backend/Python - USA (100% Remote)",
                        "location": "usa only",
                        "company_name": "Close",
                        "date": "2023-06-12T21:59:15.000Z"
                    },
                    {
                        "_id": "648c087926ef970014344607",
                        "company_logo": "https://we-work-remotely.imgix.net/logos/0094/0332/logo.gif?ixlib=rails-4.0.0&w=50&h=50&dpr=2&fit=fill&auto=compress",
                        "id": "weworkremotely-prismatic-senior-frontend-engineer",
                        "title": "Senior Frontend Engineer",
                        "location": "usa only",
                        "company_name": "Prismatic",
                        "date": "2023-06-12T21:04:02.000Z"
                    },
                    {
                        "_id": "648c087926ef970014344639",
                        "company_logo": "https://we-work-remotely.imgix.net/logos/0084/0992/logo.gif?ixlib=rails-4.0.0&w=50&h=50&dpr=2&fit=fill&auto=compress",
                        "id": "weworkremotely-betterqa-csharp-automation-engineer-with-specflow-selenium-framework-experience",
                        "title": "C# Automation Engineer with Specflow & Selenium Framework experience",
                        "location": "europe only",
                        "company_name": "BetterQA",
                        "date": "2023-06-12T11:57:39.000Z"
                    },
                    {
                        "_id": "648c087926ef9700143445cc",
                        "company_logo": "https://we-work-remotely.imgix.net/logos/0016/0474/logo.gif?ixlib=rails-4.0.0&w=50&h=50&dpr=2&fit=fill&auto=compress",
                        "id": "weworkremotely-cobbleweb-technical-lead-online-marketplace-development",
                        "title": "Technical lead (online marketplace development)",
                        "location": "anywhere in the world",
                        "company_name": "CobbleWeb",
                        "date": "2023-06-12T06:52:36.000Z"
                    },
                    {
                        "_id": "648c087926ef970014344545",
                        "company_logo": "https://we-work-remotely.imgix.net/logos/0016/0474/logo.gif?ixlib=rails-4.0.0&w=50&h=50&dpr=2&fit=fill&auto=compress",
                        "id": "weworkremotely-cobbleweb-technical-lead-online-marketplace-development",
                        "title": "Technical lead (online marketplace development)",
                        "location": "anywhere in the world",
                        "company_name": "CobbleWeb",
                        "date": "2023-06-12T06:52:36.000Z"
                    },
                    {
                        "_id": "648c087926ef970014344591",
                        "company_logo": "https://we-work-remotely.imgix.net/logos/0016/0474/logo.gif?ixlib=rails-4.0.0&w=50&h=50&dpr=2&fit=fill&auto=compress",
                        "id": "weworkremotely-cobbleweb-senior-full-stack-php-developer-3",
                        "title": "Senior Full-stack PHP Developer",
                        "location": "anywhere in the world",
                        "company_name": "CobbleWeb",
                        "date": "2023-06-12T06:47:31.000Z"
                    },
                    {
                        "_id": "648c087926ef970014344558",
                        "company_logo": "https://we-work-remotely.imgix.net/logos/0016/0474/logo.gif?ixlib=rails-4.0.0&w=50&h=50&dpr=2&fit=fill&auto=compress",
                        "id": "weworkremotely-cobbleweb-senior-full-stack-php-developer-3",
                        "title": "Senior Full-stack PHP Developer",
                        "location": "anywhere in the world",
                        "company_name": "CobbleWeb",
                        "date": "2023-06-12T06:47:31.000Z"
                    },
                    {
                        "_id": "648c087926ef9700143445e4",
                        "company_logo": "https://we-work-remotely.imgix.net/logos/0016/0474/logo.gif?ixlib=rails-4.0.0&w=50&h=50&dpr=2&fit=fill&auto=compress",
                        "id": "weworkremotely-cobbleweb-senior-full-stack-js-developer-2",
                        "title": "Senior Full-stack JS Developer",
                        "location": "europe only/africa only",
                        "company_name": "CobbleWeb",
                        "date": "2023-06-12T06:43:03.000Z"
                    },
                    {
                        "_id": "648c087926ef970014344559",
                        "company_logo": "https://we-work-remotely.imgix.net/logos/0016/0474/logo.gif?ixlib=rails-4.0.0&w=50&h=50&dpr=2&fit=fill&auto=compress",
                        "id": "weworkremotely-cobbleweb-senior-full-stack-js-developer-2",
                        "title": "Senior Full-stack JS Developer",
                        "location": "europe only/africa only",
                        "company_name": "CobbleWeb",
                        "date": "2023-06-12T06:43:03.000Z"
                    },
                    {
                        "_id": "648c087926ef970014344618",
                        "company_logo": "https://we-work-remotely.imgix.net/logos/0094/0274/logo.gif?ixlib=rails-4.0.0&w=50&h=50&dpr=2&fit=fill&auto=compress",
                        "id": "weworkremotely-memory-worldwide-pty-ltd-short-form-video-editor",
                        "title": "Short Form Video Editor",
                        "location": "anywhere in the world",
                        "company_name": "Memory Worldwide Pty Ltd",
                        "date": "2023-06-12T04:26:56.000Z"
                    },
                    {
                        "_id": "648c087926ef9700143445a8",
                        "company_logo": "https://we-work-remotely.imgix.net/logos/0086/7527/logo.gif?ixlib=rails-4.0.0&w=50&h=50&dpr=2&fit=fill&auto=compress",
                        "id": "weworkremotely-textmagic-senior-front-end-developer-vue-typescript-spa",
                        "title": "Senior Front-end developer (Vue, Typescript, SPA)",
                        "location": "europe only",
                        "company_name": "TextMagic",
                        "date": "2023-06-11T11:59:42.000Z"
                    },
                    {
                        "_id": "648c087926ef9700143445e6",
                        "company_logo": "https://we-work-remotely.imgix.net/logos/0086/7527/logo.gif?ixlib=rails-4.0.0&w=50&h=50&dpr=2&fit=fill&auto=compress",
                        "id": "weworkremotely-textmagic-senior-back-end-developer-php-symfony-postgresql",
                        "title": "Senior Back-end developer (PHP, Symfony, PostgreSQL)",
                        "location": "europe only",
                        "company_name": "TextMagic",
                        "date": "2023-06-11T11:55:14.000Z"
                    },
                    {
                        "_id": "648c087926ef97001434460e",
                        "company_logo": "https://we-work-remotely.imgix.net/logos/0074/5925/logo.gif?ixlib=rails-4.0.0&w=50&h=50&dpr=2&fit=fill&auto=compress",
                        "id": "weworkremotely-openplay-full-stack-ruby-engineer",
                        "title": "Full Stack Ruby Engineer",
                        "location": "usa only",
                        "company_name": "OpenPlay",
                        "date": "2023-06-11T00:25:08.000Z"
                    }
                ]
            }
        }
    ],
    "standardized_name": "remote_jobs_api"
}