{
    "tool_name":"Find 100x Crypto Gems",
    "tool_description":"Discover real-time token issuances and get in before the rest of the market.",
    "title":"Find 100x Crypto Gems",
    "pricing":"FREEMIUM",
    "score":null,
    "home_url":"https://rapidapi.com/bandolin/api/find-100x-crypto-gems/",
    "host":"find-100x-crypto-gems.p.rapidapi.com",
    "api_list":[
        {
            "name":"Tokens",
            "url":"https://find-100x-crypto-gems.p.rapidapi.com/tokens/",
            "description":"Get all available tokens",
            "method":"GET",
            "required_parameters":[],
            "optional_parameters":[],
            "code":"import requests\n\nurl = \"https://find-100x-crypto-gems.p.rapidapi.com/tokens/\"\n\nheaders = {\n    \"X-RapidAPI-Key\": \"SIGN-UP-FOR-KEY\",\n    \"X-RapidAPI-Host\": \"find-100x-crypto-gems.p.rapidapi.com\"\n}\n\nresponse = requests.get(url, headers=headers)\n\nprint(response.json())\n",
            "statuscode":200,
            "body":{
                "count":40,
                "next":"https://web3-crypto-api.herokuapp.com/api/v1/tokens/?page=2",
                "previous":null,
                "results":[
                    {
                        "created":"2021-11-15T08:24:06.384703",
                        "address":"0xde10fafec05f01BdFD702DD22948A295e790433e",
                        "name":"Cortex Protocol",
                        "symbol":"CORTEX",
                        "chain":"bsc",
                        "exchange":"pancakeswap",
                        "balance":"0.000000000000000000"
                    },
                    {
                        "created":"2021-11-15T08:23:30.035076",
                        "address":"0x3A7De25B72E2e941496469d4425488868F4D92D7",
                        "name":"ElonBabyBoy",
                        "symbol":"ELONBOY",
                        "chain":"bsc",
                        "exchange":"pancakeswap",
                        "balance":"0.000000000000000000"
                    },
                    {
                        "created":"2021-11-15T08:23:28.521132",
                        "address":"0xB759E758528186f0A1C30Fa7780c270601bD2f7f",
                        "name":"putoken",
                        "symbol":"PUTOK",
                        "chain":"bsc",
                        "exchange":"pancakeswap",
                        "balance":"0.000000000000000000"
                    },
                    {
                        "created":"2021-11-15T07:58:49.438927",
                        "address":"0x5A44dDD9f7CE9AB6fd1Bd4038D6987833dCE3034",
                        "name":"uncleshiba",
                        "symbol":"uncs",
                        "chain":"bsc",
                        "exchange":"pancakeswap",
                        "balance":"0.000000000000000000"
                    },
                    {
                        "created":"2021-11-15T07:43:46.881619",
                        "address":"0x9e9C708353323B5F7622063bea0d824D25E3cAc4",
                        "name":"RodeaCoin",
                        "symbol":"RODEO",
                        "chain":"bsc",
                        "exchange":"pancakeswap",
                        "balance":"0.000000000000000000"
                    },
                    {
                        "created":"2021-11-15T07:41:12.360107",
                        "address":"0x6f036B0aF12589d2Dc7D565eef5B1Ea4f7165AFe",
                        "name":"uncleshiba",
                        "symbol":"uncs",
                        "chain":"bsc",
                        "exchange":"pancakeswap",
                        "balance":"0.000000000000000000"
                    },
                    {
                        "created":"2021-11-14T19:59:48.648536",
                        "address":"0x10Ae9091e842d713Cdc0E94Ed44f81F48df58F1e",
                        "name":"Gradient Protocol",
                        "symbol":"GRADIENT",
                        "chain":"bsc",
                        "exchange":"pancakeswap",
                        "balance":"0.000000000000000000"
                    },
                    {
                        "created":"2021-11-14T19:49:13.772849",
                        "address":"0x7422c6a73e13CCb9044c1834BaDc19490D6478F4",
                        "name":"Shiba ART NFT 🖼️",
                        "symbol":"SHIBNFT",
                        "chain":"bsc",
                        "exchange":"pancakeswap",
                        "balance":"0.000000000000000000"
                    },
                    {
                        "created":"2021-11-14T19:37:14.942593",
                        "address":"0xf02F19E42D5A57A3461cF5a264E3E38a23b0878a",
                        "name":"Alien Floki INU",
                        "symbol":"AFLOKI",
                        "chain":"bsc",
                        "exchange":"pancakeswap",
                        "balance":"0.000000000000000000"
                    },
                    {
                        "created":"2021-11-14T19:22:49.641365",
                        "address":"0xB39bF9aC907E8fDDCfA985Ef6f0BfFd4E774936a",
                        "name":"Freedom",
                        "symbol":"FD",
                        "chain":"bsc",
                        "exchange":"pancakeswap",
                        "balance":"0.000000000000000000"
                    }
                ]
            },
            "headers":{
                "access-control-allow-credentials":"true",
                "access-control-allow-origin":"*",
                "allow":"GET, HEAD, OPTIONS",
                "connection":"keep-alive",
                "content-length":"2185",
                "content-type":"application/json",
                "date":"Mon, 15 Nov 2021 07:28:58 GMT",
                "referrer-policy":"same-origin",
                "server":"RapidAPI-1.2.8",
                "vary":"Accept, Cookie",
                "via":"1.1 vegur",
                "x-content-type-options":"nosniff",
                "x-frame-options":"DENY",
                "x-rapidapi-region":"AWS - eu-central-1",
                "x-rapidapi-version":"1.2.8"
            },
            "schema":{}
        }
    ]
}