{
    "tool_name":"StartupJobs",
    "tool_description":"Get all job offers from startupjobs.cz.",
    "title":"StartupJobs",
    "pricing":"FREEMIUM",
    "score":null,
    "home_url":"https://rapidapi.com/kudlac91/api/startupjobs1/",
    "host":"startupjobs1.p.rapidapi.com",
    "api_list":[
        {
            "name":"Job offers",
            "url":"https://startupjobs1.p.rapidapi.com/job-offers",
            "description":"Get all job offers. Job offers are refreshing every 5 minutes.",
            "method":"GET",
            "required_parameters":[],
            "optional_parameters":[
                {
                    "name":"filters",
                    "type":"STRING",
                    "description":"A query to filter results.\n\nFollowing operations are supported:\n![](https://api.kub3c19.dev/public/img/operations.png?v=1)",
                    "default":"isRemote eq 1"
                },
                {
                    "name":"fields",
                    "type":"STRING",
                    "description":"A comma separated list of fields that are to be returned in results.",
                    "default":"name,description"
                },
                {
                    "name":"limit",
                    "type":"STRING",
                    "description":"The number of results to return. If not specified, the limit is 10.",
                    "default":"20"
                },
                {
                    "name":"order",
                    "type":"STRING",
                    "description":"An ordering query. For example:\n\norder=isRemote desc,name\n\nAbove call will return results ordered by name in ascending order and then by isRemote in descending order.",
                    "default":"isRemote desc,name"
                },
                {
                    "name":"offset",
                    "type":"STRING",
                    "description":"Position to start fetching results from. Used for pagination.",
                    "default":"12"
                }
            ],
            "code":"import requests\n\nurl = \"https://startupjobs1.p.rapidapi.com/job-offers\"\nquerystring = {\"filters\": filters, \"fields\": fields, \"limit\": limit, \"order\": order, \"offset\": offset}\n\nheaders = {\n    \"X-RapidAPI-Key\": \"SIGN-UP-FOR-KEY\",\n    \"X-RapidAPI-Host\": \"startupjobs1.p.rapidapi.com\"\n}\n\nresponse = requests.get(url, headers=headers, params=querystring)\n\nprint(response.json())\n",
            "statuscode":200,
            "body":{
                "data":[
                    {
                        "id":1,
                        "collaborations":"Pracovní smlouva, On-site",
                        "company":"NICE CXone (Brand Embassy)",
                        "imageUrl":"https://www.startupjobs.cz/uploads/05a068494de64b65d8c10b23230679a9.png",
                        "isHot":1,
                        "isRemote":1,
                        "isTop":0,
                        "locations":"Praha",
                        "name":"🍻 Tech leader v PHP",
                        "shifts":"Full-time",
                        "url":"https://www.startupjobs.cz/nabidka/40684/%F0%9F%8D%BB-tech-leader-v-php"
                    },
                    {
                        "id":2,
                        "collaborations":"Freelance, Pracovní smlouva",
                        "company":"Nano Energies",
                        "imageUrl":"https://www.startupjobs.cz/uploads/2G62O14XBPB3new-nano-energies-2018-rgb152060479510.png",
                        "isHot":1,
                        "isRemote":1,
                        "isTop":0,
                        "locations":"Praha",
                        "name":"Tester pro automatizované testování",
                        "shifts":"Full-time",
                        "url":"https://www.startupjobs.cz/nabidka/38975/tester-pro-automatizovane-testovani"
                    },
                    {
                        "id":3,
                        "collaborations":"Pracovní smlouva",
                        "company":"LOGEX Solution Center s.r.o.",
                        "imageUrl":"https://www.startupjobs.cz/uploads/71ace7b9958e4546365025056ea0bd96.png",
                        "isHot":1,
                        "isRemote":0,
                        "isTop":0,
                        "locations":"Brno",
                        "name":"Test / Systemový analytik",
                        "shifts":"Full-time",
                        "url":"https://www.startupjobs.cz/nabidka/40681/test-systemovy-analytik"
                    },
                    {
                        "id":4,
                        "collaborations":"Freelance, Pracovní smlouva",
                        "company":"Ecomail.cz",
                        "imageUrl":"https://www.startupjobs.cz/uploads/YV5P5KD70L8Recomail-logo-new155360773126.png",
                        "isHot":1,
                        "isRemote":0,
                        "isTop":0,
                        "locations":"Praha",
                        "name":"Specialista/ka péče o zákazníky",
                        "shifts":"Full-time",
                        "url":"https://www.startupjobs.cz/nabidka/37880/specialista-ka-pece-o-zakazniky"
                    },
                    {
                        "id":5,
                        "collaborations":"Freelance, On-site",
                        "company":"UX Fans",
                        "imageUrl":"https://www.startupjobs.cz/uploads/98ef5017135f07c568382031680d9dbb.png",
                        "isHot":1,
                        "isRemote":0,
                        "isTop":0,
                        "locations":"Liberec",
                        "name":"FE developer/ka do liberecké sestavy!",
                        "shifts":"Full-time",
                        "url":"https://www.startupjobs.cz/nabidka/40663/fe-developer-ka-do-liberecke-sestavy"
                    },
                    {
                        "id":6,
                        "collaborations":"Freelance, Pracovní smlouva",
                        "company":"Apps Dev Team s.r.o.",
                        "imageUrl":"https://www.startupjobs.cz/uploads/PFFD3RGF410Nadt_mF.png",
                        "isHot":1,
                        "isRemote":1,
                        "isTop":0,
                        "locations":"Brno",
                        "name":"PHP programátor",
                        "shifts":"Full-time, Part-time",
                        "url":"https://www.startupjobs.cz/nabidka/40679/php-programator"
                    },
                    {
                        "id":7,
                        "collaborations":"Freelance, Pracovní smlouva",
                        "company":"FEO digital agency s.r.o.",
                        "imageUrl":"https://www.startupjobs.cz/uploads/OSAUY8TDIW1Lfeo-logo151177704396.png",
                        "isHot":1,
                        "isRemote":0,
                        "isTop":0,
                        "locations":"Brno",
                        "name":"PHP programátor e-shopů na míru - Brno/HPP",
                        "shifts":"Full-time",
                        "url":"http://www.startupjobs.cz/nabidka/7916/php-programator-e-shopu-na-miru-brno-hpp"
                    },
                    {
                        "id":8,
                        "collaborations":"Pracovní smlouva, On-site",
                        "company":"CROSS IT SOLUTIONS, s.r.o.",
                        "imageUrl":"https://www.startupjobs.cz/uploads/f164709ec5548ee90271e814f47410cd.png",
                        "isHot":1,
                        "isRemote":0,
                        "isTop":0,
                        "locations":"Praha, Beroun, Kladno, Rudná, Hořovice, Hostivice, Unhošť, Zdice, Černošice",
                        "name":"Hledáme kolegu. Junior IT support specialist(k)u pro svět Microsoftu a Fortinetu",
                        "shifts":"Full-time",
                        "url":"https://www.startupjobs.cz/nabidka/35624/hledame-kolegu-junior-it-support-specialist-k-u-pro-svet-microsoftu-a-fortinetu"
                    },
                    {
                        "id":9,
                        "collaborations":"Pracovní smlouva",
                        "company":"Reas.cz",
                        "imageUrl":"https://www.startupjobs.cz/uploads/GN7B8C7F4FV3reas-png-pozitivni152542575840.png",
                        "isHot":1,
                        "isRemote":1,
                        "isTop":0,
                        "locations":"Bratislava, Praha, Košice, Prešov",
                        "name":"Business development manager - Slovensko (Remote)",
                        "shifts":"Full-time",
                        "url":"https://www.startupjobs.cz/nabidka/40584/business-development-manager-slovensko-remote"
                    },
                    {
                        "id":10,
                        "collaborations":"Pracovní smlouva",
                        "company":"Reas.cz",
                        "imageUrl":"https://www.startupjobs.cz/uploads/GN7B8C7F4FV3reas-png-pozitivni152542575840.png",
                        "isHot":1,
                        "isRemote":0,
                        "isTop":0,
                        "locations":"Praha",
                        "name":"Head of International Expansion 🚀",
                        "shifts":"Full-time",
                        "url":"https://www.startupjobs.cz/nabidka/40574/head-of-international-expansion"
                    }
                ],
                "meta":{
                    "paging":{
                        "links":{
                            "next":"https://api.kub3c19.dev/startupjobs/public/v1/job-offers?offset=10"
                        },
                        "total":1236
                    },
                    "time":0.016
                }
            },
            "headers":{
                "access-control-allow-credentials":"true",
                "access-control-allow-headers":"Authorization,Content-Type",
                "access-control-allow-methods":"GET, POST, PUT, PATCH, DELETE, OPTIONS",
                "access-control-allow-origin":"*",
                "cache-control":"no-cache, private",
                "connection":"keep-alive",
                "content-length":"4350",
                "content-type":"application/json",
                "date":"Wed, 08 Jun 2022 11:13:29 GMT",
                "server":"RapidAPI-1.2.8",
                "vary":"Accept-Encoding",
                "x-rapidapi-region":"AWS - eu-central-1",
                "x-rapidapi-version":"1.2.8",
                "x-ratelimit-limit":"60",
                "x-ratelimit-remaining":"59"
            },
            "schema":{}
        }
    ]
}