{
    "product_id": "api_1e184fd4-c2e7-480e-90b8-5e35fc67ec6e",
    "tool_description": "Free Feku ( Fake ) API for Testing and Prototyping.",
    "home_url": "https://rapidapi.com/jaymanale29/api/feku-json1/",
    "name": "Feku Json",
    "title": "Feku Json",
    "pricing": "FREE",
    "tool_name": "Feku Json",
    "score": {
        "avgServiceLevel": 75,
        "avgLatency": 1029,
        "avgSuccessRate": 67,
        "popularityScore": 7.5,
        "__typename": "Score"
    },
    "host": "feku-json1.p.rapidapi.com",
    "api_list": [
        {
            "name": "getBookById",
            "url": "https://feku-json1.p.rapidapi.com/api/v1/books/1",
            "description": "get Specific Book by ID",
            "method": "GET",
            "required_parameters": [
                {
                    "name": "id",
                    "type": "string",
                    "description": "",
                    "default": "1"
                }
            ],
            "optional_parameters": [],
            "code": "import requests\n\nurl = \"https://feku-json1.p.rapidapi.com/api/v1/books/1\"\n\nheaders = {\n            \"X-RapidAPI-Key\": \"SIGN-UP-FOR-KEY\",\n            \"X-RapidAPI-Host\": \"feku-json1.p.rapidapi.com\"\n        }\n\nresponse = requests.get(url, headers=headers)\nprint(response.json())\n",
            "convert_code": "import requests\n\nurl = \"https://feku-json1.p.rapidapi.com/api/v1/books/{id}\"\n\nheaders = {\n            \"X-RapidAPI-Key\": \"SIGN-UP-FOR-KEY\",\n            \"X-RapidAPI-Host\": \"feku-json1.p.rapidapi.com\"\n        }\n\nresponse = requests.get(url, headers=headers)\nprint(response.json())\n",
            "test_endpoint": {
                "timestamp": "17-06-2023 02:06:05",
                "status": "NOT_FOUND",
                "message": "Book is not found with id : '1'",
                "description": "uri=/api/v1/books/1"
            },
            "statuscode": 200,
            "schema": {}
        },
        {
            "name": "getBooks",
            "url": "https://feku-json1.p.rapidapi.com/api/v1/books",
            "description": "get list of all books",
            "method": "GET",
            "required_parameters": [],
            "optional_parameters": [
                {
                    "name": "sortDir",
                    "type": "STRING",
                    "description": "",
                    "default": "asc"
                },
                {
                    "name": "sortBy",
                    "type": "STRING",
                    "description": "",
                    "default": "id"
                },
                {
                    "name": "pageSize",
                    "type": "NUMBER",
                    "description": "",
                    "default": "10"
                },
                {
                    "name": "pageNumber",
                    "type": "NUMBER",
                    "description": "",
                    "default": "0"
                }
            ],
            "code": "import requests\n\nurl = \"https://feku-json1.p.rapidapi.com/api/v1/books\"\nquerystring = {\"sortDir\": \"asc\", \"sortBy\": \"id\", \"pageSize\": \"10\", \"pageNumber\": \"0\"}\n\nheaders = {\n            \"X-RapidAPI-Key\": \"SIGN-UP-FOR-KEY\",\n            \"X-RapidAPI-Host\": \"feku-json1.p.rapidapi.com\"\n        }\n\nresponse = requests.get(url, headers=headers, params=querystring)\nprint(response.json())\n",
            "convert_code": "import requests\n\nurl = \"https://feku-json1.p.rapidapi.com/api/v1/books\"\nquerystring = {\"sortDir\": \"asc\", \"sortBy\": \"id\", \"pageSize\": \"10\", \"pageNumber\": \"0\"}\n\nheaders = {\n            \"X-RapidAPI-Key\": \"SIGN-UP-FOR-KEY\",\n            \"X-RapidAPI-Host\": \"feku-json1.p.rapidapi.com\"\n        }\n\nresponse = requests.get(url, headers=headers, params=querystring)\nprint(response.json())\n",
            "test_endpoint": {
                "content": [
                    {
                        "id": 2,
                        "title": "The Mirror Crack'd from Side to Side",
                        "author": "Darius Osinski",
                        "genre": "Fanfiction",
                        "publisher": "G. P. Putnam's Sons"
                    },
                    {
                        "id": 3,
                        "title": "The Last Temptation",
                        "author": "Sterling Toy",
                        "genre": "Essay",
                        "publisher": "Nonesuch Press"
                    },
                    {
                        "id": 4,
                        "title": "Carrion Comfort",
                        "author": "Dr. Florentina Yundt",
                        "genre": "Fable",
                        "publisher": "Adis International"
                    },
                    {
                        "id": 5,
                        "title": "An Evil Cradling",
                        "author": "Ms. Albert Dickens",
                        "genre": "Comic/Graphic Novel",
                        "publisher": "Borgo Press"
                    },
                    {
                        "id": 6,
                        "title": "In Death Ground",
                        "author": "Maia Shanahan V",
                        "genre": "Narrative nonfiction",
                        "publisher": "Happy House"
                    },
                    {
                        "id": 7,
                        "title": "Such, Such Were the Joys",
                        "author": "Young Sauer IV",
                        "genre": "Essay",
                        "publisher": "Booktrope"
                    },
                    {
                        "id": 8,
                        "title": "The Violent Bear It Away",
                        "author": "Ernest Kshlerin Jr.",
                        "genre": "Mythology",
                        "publisher": "BBC Books"
                    },
                    {
                        "id": 9,
                        "title": "Consider Phlebas",
                        "author": "Dannie Koch",
                        "genre": "Textbook",
                        "publisher": "Boydell & Brewer"
                    },
                    {
                        "id": 10,
                        "title": "Things Fall Apart",
                        "author": "Dominique Shields",
                        "genre": "Classic",
                        "publisher": "Imperial War Museum"
                    },
                    {
                        "id": 11,
                        "title": "Fear and Trembling",
                        "author": "Francesco Carter",
                        "genre": "Mystery",
                        "publisher": "Casemate Publishers"
                    }
                ],
                "pageNumber": 0,
                "pageSize": 10,
                "totalElements": 99,
                "totalPages": 10,
                "lastPage": false
            },
            "statuscode": 200,
            "schema": {}
        },
        {
            "name": "getProductById",
            "url": "https://feku-json1.p.rapidapi.com/api/v1/products/1",
            "description": "Get Specific Product by ID",
            "method": "GET",
            "required_parameters": [
                {
                    "name": "id",
                    "type": "string",
                    "description": "",
                    "default": "1"
                }
            ],
            "optional_parameters": [],
            "code": "import requests\n\nurl = \"https://feku-json1.p.rapidapi.com/api/v1/products/1\"\n\nheaders = {\n            \"X-RapidAPI-Key\": \"SIGN-UP-FOR-KEY\",\n            \"X-RapidAPI-Host\": \"feku-json1.p.rapidapi.com\"\n        }\n\nresponse = requests.get(url, headers=headers)\nprint(response.json())\n",
            "convert_code": "import requests\n\nurl = \"https://feku-json1.p.rapidapi.com/api/v1/products/{id}\"\n\nheaders = {\n            \"X-RapidAPI-Key\": \"SIGN-UP-FOR-KEY\",\n            \"X-RapidAPI-Host\": \"feku-json1.p.rapidapi.com\"\n        }\n\nresponse = requests.get(url, headers=headers)\nprint(response.json())\n",
            "test_endpoint": {
                "id": 1,
                "productName": "Lightweight Linen Lamp",
                "material": "Rubber",
                "price": "74.56",
                "department": "Beauty & Grocery",
                "color": "green",
                "promotionCode": "StellarPromotion271848"
            },
            "statuscode": 200,
            "schema": {}
        },
        {
            "name": "getProducts",
            "url": "https://feku-json1.p.rapidapi.com/api/v1/products",
            "description": "To Get all Product list",
            "method": "GET",
            "required_parameters": [],
            "optional_parameters": [
                {
                    "name": "sortDir",
                    "type": "STRING",
                    "description": "",
                    "default": "asc"
                },
                {
                    "name": "pageNumber",
                    "type": "NUMBER",
                    "description": "",
                    "default": "0"
                },
                {
                    "name": "sortBy",
                    "type": "STRING",
                    "description": "",
                    "default": "id"
                },
                {
                    "name": "pageSize",
                    "type": "NUMBER",
                    "description": "",
                    "default": "10"
                }
            ],
            "code": "import requests\n\nurl = \"https://feku-json1.p.rapidapi.com/api/v1/products\"\nquerystring = {\"sortDir\": \"asc\", \"pageNumber\": \"0\", \"sortBy\": \"id\", \"pageSize\": \"10\"}\n\nheaders = {\n            \"X-RapidAPI-Key\": \"SIGN-UP-FOR-KEY\",\n            \"X-RapidAPI-Host\": \"feku-json1.p.rapidapi.com\"\n        }\n\nresponse = requests.get(url, headers=headers, params=querystring)\nprint(response.json())\n",
            "convert_code": "import requests\n\nurl = \"https://feku-json1.p.rapidapi.com/api/v1/products\"\nquerystring = {\"sortDir\": \"asc\", \"pageNumber\": \"0\", \"sortBy\": \"id\", \"pageSize\": \"10\"}\n\nheaders = {\n            \"X-RapidAPI-Key\": \"SIGN-UP-FOR-KEY\",\n            \"X-RapidAPI-Host\": \"feku-json1.p.rapidapi.com\"\n        }\n\nresponse = requests.get(url, headers=headers, params=querystring)\nprint(response.json())\n",
            "test_endpoint": {
                "content": [
                    {
                        "id": 1,
                        "productName": "Lightweight Linen Lamp",
                        "material": "Rubber",
                        "price": "74.56",
                        "department": "Beauty & Grocery",
                        "color": "green",
                        "promotionCode": "StellarPromotion271848"
                    },
                    {
                        "id": 2,
                        "productName": "Fantastic Marble Bag",
                        "material": "Plastic",
                        "price": "35.50",
                        "department": "Books, Health & Music",
                        "color": "lime",
                        "promotionCode": "SweetPromotion295623"
                    },
                    {
                        "id": 3,
                        "productName": "Practical Granite Pants",
                        "material": "Aluminum",
                        "price": "38.27",
                        "department": "Games, Outdoors & Tools",
                        "color": "mint green",
                        "promotionCode": "CoolPromo452320"
                    },
                    {
                        "id": 4,
                        "productName": "Awesome Steel Chair",
                        "material": "Granite",
                        "price": "31.06",
                        "department": "Toys",
                        "color": "grey",
                        "promotionCode": "CoolPrice315140"
                    },
                    {
                        "id": 5,
                        "productName": "Enormous Granite Hat",
                        "material": "Copper",
                        "price": "23.54",
                        "department": "Grocery",
                        "color": "maroon",
                        "promotionCode": "SweetPrice265714"
                    },
                    {
                        "id": 6,
                        "productName": "Synergistic Marble Lamp",
                        "material": "Bronze",
                        "price": "81.79",
                        "department": "Computers",
                        "color": "lime",
                        "promotionCode": "SweetSale735245"
                    },
                    {
                        "id": 7,
                        "productName": "Durable Granite Knife",
                        "material": "Leather",
                        "price": "39.30",
                        "department": "Beauty, Jewelry & Toys",
                        "color": "purple",
                        "promotionCode": "GreatDeal286335"
                    },
                    {
                        "id": 8,
                        "productName": "Intelligent Granite Table",
                        "material": "Steel",
                        "price": "34.30",
                        "department": "Home",
                        "color": "gold",
                        "promotionCode": "SpecialCode675088"
                    },
                    {
                        "id": 9,
                        "productName": "Aerodynamic Copper Coat",
                        "material": "Concrete",
                        "price": "27.25",
                        "department": "Automotive",
                        "color": "gold",
                        "promotionCode": "AmazingCode712731"
                    },
                    {
                        "id": 10,
                        "productName": "Ergonomic Granite Watch",
                        "material": "Rubber",
                        "price": "26.77",
                        "department": "Music & Toys",
                        "color": "turquoise",
                        "promotionCode": "GreatPromotion211298"
                    }
                ],
                "pageNumber": 0,
                "pageSize": 10,
                "totalElements": 50,
                "totalPages": 5,
                "lastPage": false
            },
            "statuscode": 200,
            "schema": {}
        },
        {
            "name": "getUserById",
            "url": "https://feku-json1.p.rapidapi.com/api/v1/users/1",
            "description": "To to Specific User by ID",
            "method": "GET",
            "required_parameters": [
                {
                    "name": "id",
                    "type": "string",
                    "description": "",
                    "default": "1"
                }
            ],
            "optional_parameters": [],
            "code": "import requests\n\nurl = \"https://feku-json1.p.rapidapi.com/api/v1/users/1\"\n\nheaders = {\n            \"X-RapidAPI-Key\": \"SIGN-UP-FOR-KEY\",\n            \"X-RapidAPI-Host\": \"feku-json1.p.rapidapi.com\"\n        }\n\nresponse = requests.get(url, headers=headers)\nprint(response.json())\n",
            "convert_code": "import requests\n\nurl = \"https://feku-json1.p.rapidapi.com/api/v1/users/{id}\"\n\nheaders = {\n            \"X-RapidAPI-Key\": \"SIGN-UP-FOR-KEY\",\n            \"X-RapidAPI-Host\": \"feku-json1.p.rapidapi.com\"\n        }\n\nresponse = requests.get(url, headers=headers)\nprint(response.json())\n",
            "test_endpoint": {
                "id": 1,
                "firstName": "Jon",
                "lastName": "Morar",
                "email": "jonmorar@gmail.com",
                "phone": "1-709-207-5826 x2960",
                "website": "jonmorar.com"
            },
            "statuscode": 200,
            "schema": {}
        },
        {
            "name": "Get Users",
            "url": "https://feku-json1.p.rapidapi.com/api/v1/users",
            "description": "To Get list of all Users",
            "method": "GET",
            "required_parameters": [],
            "optional_parameters": [
                {
                    "name": "sortDir",
                    "type": "STRING",
                    "description": "",
                    "default": "asc"
                },
                {
                    "name": "pageSize",
                    "type": "NUMBER",
                    "description": "",
                    "default": "10"
                },
                {
                    "name": "pageNumber",
                    "type": "NUMBER",
                    "description": "",
                    "default": "0"
                },
                {
                    "name": "sortBy",
                    "type": "STRING",
                    "description": "",
                    "default": "id"
                }
            ],
            "code": "import requests\n\nurl = \"https://feku-json1.p.rapidapi.com/api/v1/users\"\nquerystring = {\"sortDir\": \"asc\", \"pageSize\": \"10\", \"pageNumber\": \"0\", \"sortBy\": \"id\"}\n\nheaders = {\n            \"X-RapidAPI-Key\": \"SIGN-UP-FOR-KEY\",\n            \"X-RapidAPI-Host\": \"feku-json1.p.rapidapi.com\"\n        }\n\nresponse = requests.get(url, headers=headers, params=querystring)\nprint(response.json())\n",
            "convert_code": "import requests\n\nurl = \"https://feku-json1.p.rapidapi.com/api/v1/users\"\nquerystring = {\"sortDir\": \"asc\", \"pageSize\": \"10\", \"pageNumber\": \"0\", \"sortBy\": \"id\"}\n\nheaders = {\n            \"X-RapidAPI-Key\": \"SIGN-UP-FOR-KEY\",\n            \"X-RapidAPI-Host\": \"feku-json1.p.rapidapi.com\"\n        }\n\nresponse = requests.get(url, headers=headers, params=querystring)\nprint(response.json())\n",
            "test_endpoint": {
                "content": [
                    {
                        "id": 1,
                        "firstName": "Jon",
                        "lastName": "Morar",
                        "email": "jonmorar@gmail.com",
                        "phone": "1-709-207-5826 x2960",
                        "website": "jonmorar.com"
                    },
                    {
                        "id": 2,
                        "firstName": "Salvador",
                        "lastName": "Tromp",
                        "email": "salvadortromp@gmail.com",
                        "phone": "571-345-5668",
                        "website": "salvadortromp.com"
                    },
                    {
                        "id": 3,
                        "firstName": "Stanford",
                        "lastName": "Ebert",
                        "email": "stanfordebert@gmail.com",
                        "phone": "(954) 702-0474 x99388",
                        "website": "stanfordebert.com"
                    },
                    {
                        "id": 4,
                        "firstName": "Stevie",
                        "lastName": "Nader",
                        "email": "stevienader@gmail.com",
                        "phone": "1-823-864-5749",
                        "website": "stevienader.com"
                    },
                    {
                        "id": 5,
                        "firstName": "Leda",
                        "lastName": "Cruickshank",
                        "email": "ledacruickshank@gmail.com",
                        "phone": "122.019.2007",
                        "website": "ledacruickshank.com"
                    },
                    {
                        "id": 6,
                        "firstName": "Reena",
                        "lastName": "Treutel",
                        "email": "reenatreutel@gmail.com",
                        "phone": "(096) 418-0495 x42064",
                        "website": "reenatreutel.com"
                    },
                    {
                        "id": 7,
                        "firstName": "Fermin",
                        "lastName": "Boehm",
                        "email": "ferminboehm@gmail.com",
                        "phone": "124-392-0525",
                        "website": "ferminboehm.com"
                    },
                    {
                        "id": 8,
                        "firstName": "Chase",
                        "lastName": "Schoen",
                        "email": "chaseschoen@gmail.com",
                        "phone": "605.406.1277",
                        "website": "chaseschoen.com"
                    },
                    {
                        "id": 9,
                        "firstName": "Bryce",
                        "lastName": "Turner",
                        "email": "bryceturner@gmail.com",
                        "phone": "697.712.2935 x191",
                        "website": "bryceturner.com"
                    },
                    {
                        "id": 10,
                        "firstName": "Kandis",
                        "lastName": "Veum",
                        "email": "kandisveum@gmail.com",
                        "phone": "535-720-6902",
                        "website": "kandisveum.com"
                    }
                ],
                "pageNumber": 0,
                "pageSize": 10,
                "totalElements": 10,
                "totalPages": 1,
                "lastPage": true
            },
            "statuscode": 200,
            "schema": {}
        }
    ],
    "standardized_name": "feku_json"
}