{
    "product_id": "api_e3925a4b-6f7b-4ec1-ae77-ff68d3def785",
    "tool_description": "API to find the list of Italian pharmacies, dynamic filters are used",
    "home_url": "https://rapidapi.com/marcocollatina/api/italian-pharmacy/",
    "name": "Italian Pharmacy",
    "title": "Italian Pharmacy",
    "pricing": "FREEMIUM",
    "tool_name": "Italian Pharmacy",
    "score": {
        "avgServiceLevel": 100,
        "avgLatency": 711,
        "avgSuccessRate": 100,
        "popularityScore": 6.4,
        "__typename": "Score"
    },
    "host": "italian-pharmacy.p.rapidapi.com",
    "api_list": [
        {
            "name": "getPharmaciesUsingGET",
            "url": "https://italian-pharmacy.p.rapidapi.com/pharmacy",
            "description": "getPharmaciesUsingGET",
            "method": "GET",
            "required_parameters": [],
            "optional_parameters": [
                {
                    "name": "size",
                    "type": "NUMBER",
                    "description": "size",
                    "default": "20"
                },
                {
                    "name": "filterOr",
                    "type": "STRING",
                    "description": "filterOr",
                    "default": ""
                },
                {
                    "name": "orders",
                    "type": "STRING",
                    "description": "orders",
                    "default": ""
                },
                {
                    "name": "filterAnd",
                    "type": "STRING",
                    "description": "filterAnd",
                    "default": ""
                },
                {
                    "name": "page",
                    "type": "NUMBER",
                    "description": "page",
                    "default": "0"
                }
            ],
            "code": "import requests\n\nurl = \"https://italian-pharmacy.p.rapidapi.com/pharmacy\"\nquerystring = {\"size\": \"20\", \"filterOr\": \"\", \"orders\": \"\", \"filterAnd\": \"\", \"page\": \"0\"}\n\nheaders = {\n            \"X-RapidAPI-Key\": \"SIGN-UP-FOR-KEY\",\n            \"X-RapidAPI-Host\": \"italian-pharmacy.p.rapidapi.com\"\n        }\n\nresponse = requests.get(url, headers=headers, params=querystring)\nprint(response.json())\n",
            "convert_code": "import requests\n\nurl = \"https://italian-pharmacy.p.rapidapi.com/pharmacy\"\nquerystring = {\"size\": \"20\", \"filterOr\": \"\", \"orders\": \"\", \"filterAnd\": \"\", \"page\": \"0\"}\n\nheaders = {\n            \"X-RapidAPI-Key\": \"SIGN-UP-FOR-KEY\",\n            \"X-RapidAPI-Host\": \"italian-pharmacy.p.rapidapi.com\"\n        }\n\nresponse = requests.get(url, headers=headers, params=querystring)\nprint(response.json())\n",
            "test_endpoint": {
                "totalPages": 1024,
                "totalItems": 20465,
                "currentPage": 1,
                "first": true,
                "last": false,
                "itemsPerPage": 20,
                "pageSize": 20,
                "items": [
                    {
                        "code": "1",
                        "description": "SAN FRANCESCO DA PAOLA",
                        "vat": "03603780010",
                        "address": "Via San Francesco Da Paola, 10",
                        "postalCode": "10123",
                        "hamlet": "-",
                        "city": {
                            "code": "001272",
                            "description": "TORINO",
                            "district": {
                                "code": "001",
                                "description": "TORINO",
                                "abbreviation": "TO",
                                "region": {
                                    "code": "010",
                                    "description": "PIEMONTE"
                                }
                            }
                        },
                        "type": {
                            "code": "1",
                            "description": "Ordinaria"
                        },
                        "latitude": 45.0652154357378,
                        "longitude": 7.68671719343681
                    },
                    {
                        "code": "2",
                        "description": "ALGOSTINO DEMICHELIS DI GALLO DOTT. MARIO",
                        "vat": "10170320013",
                        "address": "Piazza Vittorio Veneto, 10",
                        "postalCode": "10123",
                        "hamlet": "-",
                        "city": {
                            "code": "001272",
                            "description": "TORINO",
                            "district": {
                                "code": "001",
                                "description": "TORINO",
                                "abbreviation": "TO",
                                "region": {
                                    "code": "010",
                                    "description": "PIEMONTE"
                                }
                            }
                        },
                        "type": {
                            "code": "1",
                            "description": "Ordinaria"
                        },
                        "latitude": 45.003342205568,
                        "longitude": 7.60284957264712
                    },
                    {
                        "code": "3",
                        "description": "FARMACIA COLLEGIATA SNC DI DR. FERRERO CARLO &amp; C.",
                        "vat": "12587530010",
                        "address": "Via del Carmine, 1",
                        "postalCode": "10122",
                        "hamlet": "-",
                        "city": {
                            "code": "001272",
                            "description": "TORINO",
                            "district": {
                                "code": "001",
                                "description": "TORINO",
                                "abbreviation": "TO",
                                "region": {
                                    "code": "010",
                                    "description": "PIEMONTE"
                                }
                            }
                        },
                        "type": {
                            "code": "1",
                            "description": "Ordinaria"
                        },
                        "latitude": 45.0762083205915,
                        "longitude": 7.67394938429084
                    },
                    {
                        "code": "4",
                        "description": "INTERNAZIONALE",
                        "vat": "11090630010",
                        "address": "Via Carlo Alberto, 24",
                        "postalCode": "10123",
                        "hamlet": "-",
                        "city": {
                            "code": "001272",
                            "description": "TORINO",
                            "district": {
                                "code": "001",
                                "description": "TORINO",
                                "abbreviation": "TO",
                                "region": {
                                    "code": "010",
                                    "description": "PIEMONTE"
                                }
                            }
                        },
                        "type": {
                            "code": "1",
                            "description": "Ordinaria"
                        },
                        "latitude": 45.4575945727436,
                        "longitude": 7.97475968827803
                    },
                    {
                        "code": "5",
                        "description": "COLLEGIATA SANTA MARIA SNC DEL DR. BALAGNA AGOSTINO E FIGLI",
                        "vat": "09485870019",
                        "address": "Via San Francesco D`Assisi, 14",
                        "postalCode": "10122",
                        "hamlet": "-",
                        "city": {
                            "code": "001272",
                            "description": "TORINO",
                            "district": {
                                "code": "001",
                                "description": "TORINO",
                                "abbreviation": "TO",
                                "region": {
                                    "code": "010",
                                    "description": "PIEMONTE"
                                }
                            }
                        },
                        "type": {
                            "code": "1",
                            "description": "Ordinaria"
                        },
                        "latitude": 45.0716748545467,
                        "longitude": 7.68017677414661
                    },
                    {
                        "code": "6",
                        "description": "DEL CONSERVATORIO SNC DEI DR.I VECCO G., AMORETTI A. E CAPELLO C.",
                        "vat": "11104390015",
                        "address": "Via Giuseppe Mazzini, 24",
                        "postalCode": "10123",
                        "hamlet": "-",
                        "city": {
                            "code": "001272",
                            "description": "TORINO",
                            "district": {
                                "code": "001",
                                "description": "TORINO",
                                "abbreviation": "TO",
                                "region": {
                                    "code": "010",
                                    "description": "PIEMONTE"
                                }
                            }
                        },
                        "type": {
                            "code": "1",
                            "description": "Ordinaria"
                        },
                        "latitude": 45.0768757,
                        "longitude": 6.69700785
                    },
                    {
                        "code": "7",
                        "description": "FARMACIA OPERTI del Dott. RIVA Sergio",
                        "vat": "12209010011",
                        "address": "Piazza Vittorio Veneto, 11",
                        "postalCode": "10124",
                        "hamlet": "-",
                        "city": {
                            "code": "001272",
                            "description": "TORINO",
                            "district": {
                                "code": "001",
                                "description": "TORINO",
                                "abbreviation": "TO",
                                "region": {
                                    "code": "010",
                                    "description": "PIEMONTE"
                                }
                            }
                        },
                        "type": {
                            "code": "1",
                            "description": "Ordinaria"
                        },
                        "latitude": 45.003342205568,
                        "longitude": 7.60284957264712
                    },
                    {
                        "code": "8",
                        "description": "CARLO FELICE",
                        "vat": "09317390012",
                        "address": "Piazza C. Felice, 63",
                        "postalCode": "10123",
                        "hamlet": "-",
                        "city": {
                            "code": "001272",
                            "description": "TORINO",
                            "district": {
                                "code": "001",
                                "description": "TORINO",
                                "abbreviation": "TO",
                                "region": {
                                    "code": "010",
                                    "description": "PIEMONTE"
                                }
                            }
                        },
                        "type": {
                            "code": "1",
                            "description": "Ordinaria"
                        },
                        "latitude": 45.0709201,
                        "longitude": 7.6859719
                    },
                    {
                        "code": "9",
                        "description": "DEL MONUMENTO",
                        "vat": "03746910011",
                        "address": "Corso Vittorio Emanuele II, 84",
                        "postalCode": "10121",
                        "hamlet": "-",
                        "city": {
                            "code": "001272",
                            "description": "TORINO",
                            "district": {
                                "code": "001",
                                "description": "TORINO",
                                "abbreviation": "TO",
                                "region": {
                                    "code": "010",
                                    "description": "PIEMONTE"
                                }
                            }
                        },
                        "type": {
                            "code": "1",
                            "description": "Ordinaria"
                        },
                        "latitude": 45.0600441248405,
                        "longitude": 7.68636936789709
                    },
                    {
                        "code": "10",
                        "description": "Della Consolata",
                        "vat": "08872550010",
                        "address": "Via Delle Orfane, 25",
                        "postalCode": "10122",
                        "hamlet": "-",
                        "city": {
                            "code": "001272",
                            "description": "TORINO",
                            "district": {
                                "code": "001",
                                "description": "TORINO",
                                "abbreviation": "TO",
                                "region": {
                                    "code": "010",
                                    "description": "PIEMONTE"
                                }
                            }
                        },
                        "type": {
                            "code": "1",
                            "description": "Ordinaria"
                        },
                        "latitude": 45.0755970708276,
                        "longitude": 7.67936230208308
                    },
                    {
                        "code": "11",
                        "description": "Regia Farmacia Di Monchiero Luca & C. S.a.s.",
                        "vat": "11804940010",
                        "address": "Via Xx Settembre, 87",
                        "postalCode": "10100",
                        "hamlet": "-",
                        "city": {
                            "code": "001272",
                            "description": "TORINO",
                            "district": {
                                "code": "001",
                                "description": "TORINO",
                                "abbreviation": "TO",
                                "region": {
                                    "code": "010",
                                    "description": "PIEMONTE"
                                }
                            }
                        },
                        "type": {
                            "code": "1",
                            "description": "Ordinaria"
                        },
                        "latitude": 45.0692336846927,
                        "longitude": 7.68187909649041
                    },
                    {
                        "code": "12",
                        "description": "Farmacia Montanaro Della Dr.ssa Platter Francesca E C. S.n.c.",
                        "vat": "11676030015",
                        "address": "Corso Vinzaglio, 31/e",
                        "postalCode": "10121",
                        "hamlet": "-",
                        "city": {
                            "code": "001272",
                            "description": "TORINO",
                            "district": {
                                "code": "001",
                                "description": "TORINO",
                                "abbreviation": "TO",
                                "region": {
                                    "code": "010",
                                    "description": "PIEMONTE"
                                }
                            }
                        },
                        "type": {
                            "code": "1",
                            "description": "Ordinaria"
                        },
                        "latitude": 45.0681742273819,
                        "longitude": 7.66685123166935
                    },
                    {
                        "code": "13",
                        "description": "BONISCONTRO",
                        "vat": "05230100017",
                        "address": "Corso Vittorio Emanuele II, 66",
                        "postalCode": "10121",
                        "hamlet": "-",
                        "city": {
                            "code": "001272",
                            "description": "TORINO",
                            "district": {
                                "code": "001",
                                "description": "TORINO",
                                "abbreviation": "TO",
                                "region": {
                                    "code": "010",
                                    "description": "PIEMONTE"
                                }
                            }
                        },
                        "type": {
                            "code": "1",
                            "description": "Ordinaria"
                        },
                        "latitude": 45.0600441248405,
                        "longitude": 7.68636936789709
                    },
                    {
                        "code": "14",
                        "description": "UNIVERSITA' GIORDA",
                        "vat": "10041330019",
                        "address": "Via Po, 14",
                        "postalCode": "10124",
                        "hamlet": "-",
                        "city": {
                            "code": "001272",
                            "description": "TORINO",
                            "district": {
                                "code": "001",
                                "description": "TORINO",
                                "abbreviation": "TO",
                                "region": {
                                    "code": "010",
                                    "description": "PIEMONTE"
                                }
                            }
                        },
                        "type": {
                            "code": "1",
                            "description": "Ordinaria"
                        },
                        "latitude": 45.0647868152497,
                        "longitude": 7.69541631702841
                    },
                    {
                        "code": "15",
                        "description": "DEGLI STEMMI DI MARANZANA DOTT.SSA CLAUDIA",
                        "vat": "11552520014",
                        "address": "Via Po, 31/B",
                        "postalCode": "10124",
                        "hamlet": "-",
                        "city": {
                            "code": "001272",
                            "description": "TORINO",
                            "district": {
                                "code": "001",
                                "description": "TORINO",
                                "abbreviation": "TO",
                                "region": {
                                    "code": "010",
                                    "description": "PIEMONTE"
                                }
                            }
                        },
                        "type": {
                            "code": "1",
                            "description": "Ordinaria"
                        },
                        "latitude": 45.0647868152497,
                        "longitude": 7.69541631702841
                    },
                    {
                        "code": "16",
                        "description": "SANTA BARBARA",
                        "vat": "12592300011",
                        "address": "Via Cernaia, 24",
                        "postalCode": "10122",
                        "hamlet": "-",
                        "city": {
                            "code": "001272",
                            "description": "TORINO",
                            "district": {
                                "code": "001",
                                "description": "TORINO",
                                "abbreviation": "TO",
                                "region": {
                                    "code": "010",
                                    "description": "PIEMONTE"
                                }
                            }
                        },
                        "type": {
                            "code": "1",
                            "description": "Ordinaria"
                        },
                        "latitude": 45.0707584154146,
                        "longitude": 7.67614813764086
                    },
                    {
                        "code": "17",
                        "description": "Farmacia Ordine Mauriziano snc del dottor Emanuele Platter & C.",
                        "vat": "12053010018",
                        "address": "Via piazza della repubblica, 6/b",
                        "postalCode": "10122",
                        "hamlet": "-",
                        "city": {
                            "code": "001272",
                            "description": "TORINO",
                            "district": {
                                "code": "001",
                                "description": "TORINO",
                                "abbreviation": "TO",
                                "region": {
                                    "code": "010",
                                    "description": "PIEMONTE"
                                }
                            }
                        },
                        "type": {
                            "code": "1",
                            "description": "Ordinaria"
                        },
                        "latitude": 45.0709201,
                        "longitude": 7.6859719
                    },
                    {
                        "code": "18",
                        "description": "PENSA",
                        "vat": "05901920016",
                        "address": "Via Cernaia, 14",
                        "postalCode": "10122",
                        "hamlet": "-",
                        "city": {
                            "code": "001272",
                            "description": "TORINO",
                            "district": {
                                "code": "001",
                                "description": "TORINO",
                                "abbreviation": "TO",
                                "region": {
                                    "code": "010",
                                    "description": "PIEMONTE"
                                }
                            }
                        },
                        "type": {
                            "code": "1",
                            "description": "Ordinaria"
                        },
                        "latitude": 45.0707584154146,
                        "longitude": 7.67614813764086
                    },
                    {
                        "code": "19",
                        "description": "FARMACIA VECCO VIA ROMA DI FARMACIA VECCO SNC",
                        "vat": "09249220014",
                        "address": "Via Roma, 24",
                        "postalCode": "10121",
                        "hamlet": "-",
                        "city": {
                            "code": "001272",
                            "description": "TORINO",
                            "district": {
                                "code": "001",
                                "description": "TORINO",
                                "abbreviation": "TO",
                                "region": {
                                    "code": "010",
                                    "description": "PIEMONTE"
                                }
                            }
                        },
                        "type": {
                            "code": "1",
                            "description": "Ordinaria"
                        },
                        "latitude": 44.930433244759,
                        "longitude": 7.53106340038547
                    },
                    {
                        "code": "20",
                        "description": "DELLA ROCCA",
                        "vat": "06424140017",
                        "address": "Via dei Mille, 48",
                        "postalCode": "10123",
                        "hamlet": "-",
                        "city": {
                            "code": "001272",
                            "description": "TORINO",
                            "district": {
                                "code": "001",
                                "description": "TORINO",
                                "abbreviation": "TO",
                                "region": {
                                    "code": "010",
                                    "description": "PIEMONTE"
                                }
                            }
                        },
                        "type": {
                            "code": "1",
                            "description": "Ordinaria"
                        },
                        "latitude": 45.0607553603755,
                        "longitude": 7.6924350538519
                    }
                ]
            },
            "statuscode": 1,
            "schema": ""
        }
    ],
    "standardized_name": "italian_pharmacy"
}